…
-   An abundance matrix called `hmp_otus`, with samples in columns and OTUs in rows
-   A sample information table called `hmp_samples`, with samples as rows and columns of information describing the samples (e.g. gender).

This is the preferred way to encode this type of abundance information in `metacoder` and `taxa`. Lets take a look at this data:

``` r
library(metacoder)
#> Loading required package: taxa
#> This is metacoder verison 0.2.1 (stable). If you use metacoder for published research, please cite our paper:
#> 
#> Foster Z, Sharpton T and Grunwald N (2017). "Metacoder: An R package for visualization and manipulation of community taxonomic diversity data." PLOS Computational Biology, 13(2), pp. 1-15. doi: 10.1371/journal.pcbi.1005404
#> 
#> Enter `citation("metacoder")` for a BibTeX entry for this citation.
print(hmp_otus)
#> # A tibble: 1,000 x 52
#>    otu_id lineage `700035949` `700097855` `700100489` `700111314` `700033744` `700109581`
#>    <chr>  <chr>         <int>       <int>       <int>       <int>       <int>       <int>
#>  1 OTU_9… r__Roo…           0           2           1           0           0           0
#>  2 OTU_9… r__Roo…           0           0           0           0           0           0
#>  3 OTU_9… r__Roo…           0           1           0           0           0           0
#>  4 OTU_9… r__Roo…           8          36          10           5          66          38
#>  5 OTU_9… r__Roo…           3          25           0           0           0           1
#>  6 OTU_9… r__Roo…          42         277          16          22          85         211
#>  7 OTU_9… r__Roo…           4          17          21           1          74          12
#>  8 OTU_9… r__Roo…           0           0           0           0           0           0
#>  9 OTU_9… r__Roo…           0           0           0           0           0           0
#> 10 OTU_9… r__Roo…           0           0           0           0           1           0
#> # ... with 990 more rows, and 44 more variables: `700111044` <int>, `700101365` <int>,
#> #   `700100431` <int>, `700016050` <int>, `700032425` <int>, `700024855` <int>,
#> #   `700103488` <int>, `700096869` <int>, `700107379` <int>, `700096422` <int>,
#> #   `700102417` <int>, `700114168` <int>, `700037540` <int>, `700106397` <int>,
#> #   `700113498` <int>, `700033743` <int>, `700105205` <int>, `700024238` <int>,
#> #   `700034183` <int>, `700038390` <int>, `700015973` <int>, `700038124` <int>,
#> #   `700107206` <int>, `700037403` <int>, `700098429` <int>, `700101224` <int>,
#> #   `700114615` <int>, `700024234` <int>, `700108596` <int>, `700101076` <int>,
#> #   `700105882` <int>, `700016902` <int>, `700102242` <int>, `700038231` <int>,
#> #   `700109394` <int>, `700102530` <int>, `700108229` <int>, `700099013` <int>,
#> #   `700098680` <int>, `700106938` <int>, `700014916` <int>, `700095535` <int>,
#> #   `700102367` <int>, `700101358` <int>
print(hmp_samples)
#> # A tibble: 50 x 3
#> # Groups:   body_site, sex [10]
#>    sample_id sex    body_site
#>    <chr>     <chr>  <chr>    
#>  1 700035949 female Nose     
#>  2 700097855 female Nose     
#>  3 700100489 female Nose     
#>  4 700111314 female Nose     
#>  5 700033744 female Nose     
#>  6 700109581 male   Nose     
#>  7 700111044 male   Nose     
#>  8 700101365 male   Nose     
#>  9 700100431 male   Nose     
#> 10 700016050 male   Nose     
#> # ... with 40 more rows
```
…
This returns a `taxmap` object. The `taxmap` class is designed to store any number of tables, lists, or vectors associated with taxonomic information and facilitate manipulating the data in a cohesive way. Here is what that object looks like:

``` r
print(obj)
#> <Taxmap>
#>   174 taxa: ab. Root, ac. Proteobacteria ... gr. Blautia, gs. Clostridium
#>   174 edges: NA->ab, ab->ac, ab->ad, ab->ae ... cm->gq, cf->gr, cw->gs
#>   2 data sets:
#>     tax_data:
#>       # A tibble: 1,000 x 53
#>         taxon_id otu_id lineage `700035949` `700097855` `700100489` `700111314`
#>         <chr>    <chr>  <chr>         <int>       <int>       <int>       <int>
#>       1 dm       OTU_9… r__Roo…           0           2           1           0
#>       2 dn       OTU_9… r__Roo…           0           0           0           0
#>       3 do       OTU_9… r__Roo…           0           1           0           0
#>       # ... with 997 more rows, and 46 more variables: `700033744` <int>,
#>       #   `700109581` <int>, `700111044` <int>, `700101365` <int>,
#>       #   `700100431` <int>, `700016050` <int>, `700032425` <int>,
#>       #   `700024855` <int>, `700103488` <int>, `700096869` <int>,
#>       #   `700107379` <int>, `700096422` <int>, `700102417` <int>,
#>       #   `700114168` <int>, `700037540` <int>, `700106397` <int>,
#>       #   `700113498` <int>, `700033743` <int>, `700105205` <int>,
#>       #   `700024238` <int>, `700034183` <int>, `700038390` <int>,
#>       #   `700015973` <int>, `700038124` <int>, `700107206` <int>,
#>       #   `700037403` <int>, `700098429` <int>, `700101224` <int>,
#>       #   `700114615` <int>, `700024234` <int>, `700108596` <int>,
#>       #   `700101076` <int>, `700105882` <int>, `700016902` <int>,
#>       #   `700102242` <int>, `700038231` <int>, `700109394` <int>,
#>       #   `700102530` <int>, `700108229` <int>, `700099013` <int>,
#>       #   `700098680` <int>, `700106938` <int>, `700014916` <int>,
#>       #   `700095535` <int>, `700102367` <int>, `700101358` <int>
#>     class_data:
#>       # A tibble: 5,922 x 5
#>         taxon_id input_index tax_rank tax_name            regex_match          
#>         <chr>          <int> <chr>    <chr>               <chr>                
#>       1 ab                 1 r        Root                r__Root              
#>       2 ac                 1 p        Proteobacteria      p__Proteobacteria    
#>       3 aj                 1 c        Gammaproteobacteria c__Gammaproteobacter…
#>       # ... with 5,919 more rows
…
It appears that 211 of 1000 OTUs now have no reads. We can remove those OTUs and their associated taxa with `filter_obs`:

``` r
obj <- filter_obs(obj, "tax_data", ! no_reads, drop_taxa = TRUE)
print(obj)
#> <Taxmap>
#>   155 taxa: ab. Root, ac. Proteobacteria ... gs. Clostridium
#>   155 edges: NA->ab, ab->ac, ab->ad, ab->ae ... dk->gp, cm->gq, cw->gs
#>   2 data sets:
#>     tax_data:
#>       # A tibble: 789 x 51
#>         taxon_id `700035949` `700097855` `700100489` `700111314` `700033744`
#>         <chr>          <dbl>       <dbl>       <dbl>       <dbl>       <dbl>
#>       1 dm                0.          0.          0.          0.          0.
#>       2 dn                0.          0.          0.          0.          0.
#>       3 do                0.          0.          0.          0.          0.
#>       # ... with 786 more rows, and 45 more variables: `700109581` <dbl>,
#>       #   `700111044` <dbl>, `700101365` <dbl>, `700100431` <dbl>,
#>       #   `700016050` <dbl>, `700032425` <dbl>, `700024855` <dbl>,
#>       #   `700103488` <dbl>, `700096869` <dbl>, `700107379` <dbl>,
#>       #   `700096422` <dbl>, `700102417` <dbl>, `700114168` <dbl>,
#>       #   `700037540` <dbl>, `700106397` <dbl>, `700113498` <dbl>,
#>       #   `700033743` <dbl>, `700105205` <dbl>, `700024238` <dbl>,
#>       #   `700034183` <dbl>, `700038390` <dbl>, `700015973` <dbl>,
#>       #   `700038124` <dbl>, `700107206` <dbl>, `700037403` <dbl>,
#>       #   `700098429` <dbl>, `700101224` <dbl>, `700114615` <dbl>,
#>       #   `700024234` <dbl>, `700108596` <dbl>, `700101076` <dbl>,
#>       #   `700105882` <dbl>, `700016902` <dbl>, `700102242` <dbl>,
#>       #   `700038231` <dbl>, `700109394` <dbl>, `700102530` <dbl>,
#>       #   `700108229` <dbl>, `700099013` <dbl>, `700098680` <dbl>,
#>       #   `700106938` <dbl>, `700014916` <dbl>, `700095535` <dbl>,
#>       #   `700102367` <dbl>, `700101358` <dbl>
#>     class_data:
#>       # A tibble: 5,903 x 5
#>         taxon_id input_index tax_rank tax_name            regex_match          
#>         <chr>          <int> <chr>    <chr>               <chr>                
#>       1 ab                 1 r        Root                r__Root              
#>       2 ac                 1 p        Proteobacteria      p__Proteobacteria    
#>       3 aj                 1 c        Gammaproteobacteria c__Gammaproteobacter…
#>       # ... with 5,900 more rows
…
These are raw counts, but people typically work with rarefied counts or proportions to avoid sampling depth biasing the results. The function `rarefy_obs` will return the rarefied counts for a table in a taxmap object, but lets use proportions for this demonstration:

``` r
obj$data$tax_data <- calc_obs_props(obj, "tax_data")
#> No `cols` specified, so using all numeric columns:
#>    700035949, 700097855, 700100489 ... 700095535, 700102367, 700101358
#> Calculating proportions from counts for 50 columns for 789 observations.
print(obj)
#> <Taxmap>
#>   155 taxa: ab. Root, ac. Proteobacteria ... gs. Clostridium
#>   155 edges: NA->ab, ab->ac, ab->ad, ab->ae ... dk->gp, cm->gq, cw->gs
#>   2 data sets:
#>     tax_data:
#>       # A tibble: 789 x 51
#>         taxon_id `700035949` `700097855` `700100489` `700111314` `700033744`
#>         <chr>          <dbl>       <dbl>       <dbl>       <dbl>       <dbl>
#>       1 dm                0.          0.          0.          0.          0.
#>       2 dn                0.          0.          0.          0.          0.
#>       3 do                0.          0.          0.          0.          0.
#>       # ... with 786 more rows, and 45 more variables: `700109581` <dbl>,
#>       #   `700111044` <dbl>, `700101365` <dbl>, `700100431` <dbl>,
#>       #   `700016050` <dbl>, `700032425` <dbl>, `700024855` <dbl>,
#>       #   `700103488` <dbl>, `700096869` <dbl>, `700107379` <dbl>,
#>       #   `700096422` <dbl>, `700102417` <dbl>, `700114168` <dbl>,
#>       #   `700037540` <dbl>, `700106397` <dbl>, `700113498` <dbl>,
#>       #   `700033743` <dbl>, `700105205` <dbl>, `700024238` <dbl>,
#>       #   `700034183` <dbl>, `700038390` <dbl>, `700015973` <dbl>,
#>       #   `700038124` <dbl>, `700107206` <dbl>, `700037403` <dbl>,
#>       #   `700098429` <dbl>, `700101224` <dbl>, `700114615` <dbl>,
#>       #   `700024234` <dbl>, `700108596` <dbl>, `700101076` <dbl>,
#>       #   `700105882` <dbl>, `700016902` <dbl>, `700102242` <dbl>,
#>       #   `700038231` <dbl>, `700109394` <dbl>, `700102530` <dbl>,
#>       #   `700108229` <dbl>, `700099013` <dbl>, `700098680` <dbl>,
#>       #   `700106938` <dbl>, `700014916` <dbl>, `700095535` <dbl>,
#>       #   `700102367` <dbl>, `700101358` <dbl>
#>     class_data:
#>       # A tibble: 5,903 x 5
#>         taxon_id input_index tax_rank tax_name            regex_match          
#>         <chr>          <int> <chr>    <chr>               <chr>                
#>       1 ab                 1 r        Root                r__Root              
#>       2 ac                 1 p        Proteobacteria      p__Proteobacteria    
#>       3 aj                 1 c        Gammaproteobacteria c__Gammaproteobacter…
#>       # ... with 5,900 more rows
…
### Getting per-taxon information

Currently, we have values for the abundance of each OTU, not each taxon. To get information on the taxa, we can sum the abundance per-taxon like so:

``` r
obj$data$tax_abund <- calc_taxon_abund(obj, "tax_data",
                                       cols = hmp_samples$sample_id)
#> Summing per-taxon counts from 50 columns for 155 taxa
print(obj)
#> <Taxmap>
#>   155 taxa: ab. Root, ac. Proteobacteria ... gs. Clostridium
#>   155 edges: NA->ab, ab->ac, ab->ad, ab->ae ... dk->gp, cm->gq, cw->gs
#>   3 data sets:
#>     tax_data:
#>       # A tibble: 789 x 51
#>         taxon_id `700035949` `700097855` `700100489` `700111314` `700033744`
#>         <chr>          <dbl>       <dbl>       <dbl>       <dbl>       <dbl>
#>       1 dm                0.          0.          0.          0.          0.
#>       2 dn                0.          0.          0.          0.          0.
#>       3 do                0.          0.          0.          0.          0.
#>       # ... with 786 more rows, and 45 more variables: `700109581` <dbl>,
#>       #   `700111044` <dbl>, `700101365` <dbl>, `700100431` <dbl>,
#>       #   `700016050` <dbl>, `700032425` <dbl>, `700024855` <dbl>,
#>       #   `700103488` <dbl>, `700096869` <dbl>, `700107379` <dbl>,
#>       #   `700096422` <dbl>, `700102417` <dbl>, `700114168` <dbl>,
#>       #   `700037540` <dbl>, `700106397` <dbl>, `700113498` <dbl>,
#>       #   `700033743` <dbl>, `700105205` <dbl>, `700024238` <dbl>,
#>       #   `700034183` <dbl>, `700038390` <dbl>, `700015973` <dbl>,
#>       #   `700038124` <dbl>, `700107206` <dbl>, `700037403` <dbl>,
#>       #   `700098429` <dbl>, `700101224` <dbl>, `700114615` <dbl>,
#>       #   `700024234` <dbl>, `700108596` <dbl>, `700101076` <dbl>,
#>       #   `700105882` <dbl>, `700016902` <dbl>, `700102242` <dbl>,
#>       #   `700038231` <dbl>, `700109394` <dbl>, `700102530` <dbl>,
#>       #   `700108229` <dbl>, `700099013` <dbl>, `700098680` <dbl>,
#>       #   `700106938` <dbl>, `700014916` <dbl>, `700095535` <dbl>,
#>       #   `700102367` <dbl>, `700101358` <dbl>
#>     class_data:
#>       # A tibble: 5,903 x 5
#>         taxon_id input_index tax_rank tax_name            regex_match          
#>         <chr>          <int> <chr>    <chr>               <chr>                
#>       1 ab                 1 r        Root                r__Root              
#>       2 ac                 1 p        Proteobacteria      p__Proteobacteria    
#>       3 aj                 1 c        Gammaproteobacteria c__Gammaproteobacter…
#>       # ... with 5,900 more rows
#>     tax_abund:
#>       # A tibble: 155 x 51
#>         taxon_id `700035949` `700097855` `700100489` `700111314` `700033744`
#>       * <chr>          <dbl>       <dbl>       <dbl>       <dbl>       <dbl>
#>       1 ab             1.00      1.00             1.      1.00         1.00 
#>       2 ac             0.206     0.0262           0.      0.252        0.225
#>       3 ad             0.        0.00269          0.      0.0417       0.   
#>       # ... with 152 more rows, and 45 more variables: `700109581` <dbl>,
#>       #   `700111044` <dbl>, `700101365` <dbl>, `700100431` <dbl>,
#>       #   `700016050` <dbl>, `700032425` <dbl>, `700024855` <dbl>,
#>       #   `700103488` <dbl>, `700096869` <dbl>, `700107379` <dbl>,
#>       #   `700096422` <dbl>, `700102417` <dbl>, `700114168` <dbl>,
#>       #   `700037540` <dbl>, `700106397` <dbl>, `700113498` <dbl>,
#>       #   `700033743` <dbl>, `700105205` <dbl>, `700024238` <dbl>,
#>       #   `700034183` <dbl>, `700038390` <dbl>, `700015973` <dbl>,
#>       #   `700038124` <dbl>, `700107206` <dbl>, `700037403` <dbl>,
…
We can also easily calculate the number of samples have reads for each taxon:

``` r
obj$data$tax_occ <- calc_n_samples(obj, "tax_abund", groups = hmp_samples$body_site)
#> No `cols` specified, so using all numeric columns:
#>    700035949, 700097855, 700100489 ... 700095535, 700102367, 700101358
#> Calculating number of samples with non-zero counts from 50 columns in 5 groups for 155 observations
print(obj)
#> <Taxmap>
#>   155 taxa: ab. Root, ac. Proteobacteria ... gs. Clostridium
#>   155 edges: NA->ab, ab->ac, ab->ad, ab->ae ... dk->gp, cm->gq, cw->gs
#>   4 data sets:
#>     tax_data:
#>       # A tibble: 789 x 51
#>         taxon_id `700035949` `700097855` `700100489` `700111314` `700033744`
#>         <chr>          <dbl>       <dbl>       <dbl>       <dbl>       <dbl>
#>       1 dm                0.          0.          0.          0.          0.
#>       2 dn                0.          0.          0.          0.          0.
#>       3 do                0.          0.          0.          0.          0.
#>       # ... with 786 more rows, and 45 more variables: `700109581` <dbl>,
#>       #   `700111044` <dbl>, `700101365` <dbl>, `700100431` <dbl>,
#>       #   `700016050` <dbl>, `700032425` <dbl>, `700024855` <dbl>,
#>       #   `700103488` <dbl>, `700096869` <dbl>, `700107379` <dbl>,
#>       #   `700096422` <dbl>, `700102417` <dbl>, `700114168` <dbl>,
#>       #   `700037540` <dbl>, `700106397` <dbl>, `700113498` <dbl>,
#>       #   `700033743` <dbl>, `700105205` <dbl>, `700024238` <dbl>,
#>       #   `700034183` <dbl>, `700038390` <dbl>, `700015973` <dbl>,
#>       #   `700038124` <dbl>, `700107206` <dbl>, `700037403` <dbl>,
#>       #   `700098429` <dbl>, `700101224` <dbl>, `700114615` <dbl>,
#>       #   `700024234` <dbl>, `700108596` <dbl>, `700101076` <dbl>,
#>       #   `700105882` <dbl>, `700016902` <dbl>, `700102242` <dbl>,
#>       #   `700038231` <dbl>, `700109394` <dbl>, `700102530` <dbl>,
#>       #   `700108229` <dbl>, `700099013` <dbl>, `700098680` <dbl>,
#>       #   `700106938` <dbl>, `700014916` <dbl>, `700095535` <dbl>,
#>       #   `700102367` <dbl>, `700101358` <dbl>
#>     class_data:
#>       # A tibble: 5,903 x 5
#>         taxon_id input_index tax_rank tax_name            regex_match          
#>         <chr>          <int> <chr>    <chr>               <chr>                
#>       1 ab                 1 r        Root                r__Root              
#>       2 ac                 1 p        Proteobacteria      p__Proteobacteria    
#>       3 aj                 1 c        Gammaproteobacteria c__Gammaproteobacter…
#>       # ... with 5,900 more rows
#>     tax_abund:
#>       # A tibble: 155 x 51
#>         taxon_id `700035949` `700097855` `700100489` `700111314` `700033744`
#>       * <chr>          <dbl>       <dbl>       <dbl>       <dbl>       <dbl>
#>       1 ab             1.00      1.00             1.      1.00         1.00 
#>       2 ac             0.206     0.0262           0.      0.252        0.225
#>       3 ad             0.        0.00269          0.      0.0417       0.   
#>       # ... with 152 more rows, and 45 more variables: `700109581` <dbl>,
#>       #   `700111044` <dbl>, `700101365` <dbl>, `700100431` <dbl>,
#>       #   `700016050` <dbl>, `700032425` <dbl>, `700024855` <dbl>,
#>       #   `700103488` <dbl>, `700096869` <dbl>, `700107379` <dbl>,
#>       #   `700096422` <dbl>, `700102417` <dbl>, `700114168` <dbl>,
#>       #   `700037540` <dbl>, `700106397` <dbl>, `700113498` <dbl>,
#>       #   `700033743` <dbl>, `700105205` <dbl>, `700024238` <dbl>,
#>       #   `700034183` <dbl>, `700038390` <dbl>, `700015973` <dbl>,
#>       #   `700038124` <dbl>, `700107206` <dbl>, `700037403` <dbl>,
#>       #   `700098429` <dbl>, `700101224` <dbl>, `700114615` <dbl>,
#>       #   `700024234` <dbl>, `700108596` <dbl>, `700101076` <dbl>,
#>       #   `700105882` <dbl>, `700016902` <dbl>, `700102242` <dbl>,
#>       #   `700038231` <dbl>, `700109394` <dbl>, `700102530` <dbl>,
#>       #   `700108229` <dbl>, `700099013` <dbl>, `700098680` <dbl>,
#>       #   `700106938` <dbl>, `700014916` <dbl>, `700095535` <dbl>,
#>       #   `700102367` <dbl>, `700101358` <dbl>
#>     tax_occ:
#>       # A tibble: 155 x 6
#>         taxon_id  Nose Saliva  Skin Stool Throat
#>         <chr>    <int>  <int> <int> <int>  <int>
#>       1 ab          10     10    10    10     10
#>       2 ac           8     10     9     2     10
#>       3 ad           5     10     8    10     10
#>       # ... with 152 more rows
…
